{
	"id": "e39fc85e-504a-4951-90f9-be6df5c5cc78",
	"name": "Production",
	"values": [
		{
			"key": "baseUrl",
			"value": "http://production.eba-ehi62234.us-east-2.elasticbeanstalk.com",
			"enabled": true
		}
	],
	"_postman_variable_scope": "environment",
	"_postman_exported_at": "2020-05-01T15:05:14.247Z",
	"_postman_exported_using": "Postman/7.23.0"
}